# 3ds Max Wavefront OBJ Exporter v0.97b - (c)2007 guruware
# File Created: 05.03.2019 19:47:20

newmtl Material_001
	Ns 43.2193
	Ni 1.5000
	d 1.0000
	Tr 0.0000
	Tf 1.0000 1.0000 1.0000 
	illum 2
	Ka 0.2000 0.2000 0.2000
	Kd 0.8000 0.8000 0.8000
	Ks 0.2000 0.2000 0.2000
	Ke 0.0000 0.0000 0.0000
